[gd_scene load_steps=5 format=2]

[ext_resource path="res://assets/kenney/iceBlockAlt.png" type="Texture" id=1]
[ext_resource path="res://scripts/IceBlock.gd" type="Script" id=2]

[sub_resource type="RectangleShape2D" id=1]
extents = Vector2( 36, 36 )

[sub_resource type="RectangleShape2D" id=2]
extents = Vector2( 36, 18 )

[node name="FullIceBlock" type="StaticBody2D"]
collision_layer = 2
script = ExtResource( 2 )
melting_speed = 0.3

[node name="Sprite" type="Sprite" parent="."]
texture = ExtResource( 1 )

[node name="CollisionShape2D" type="CollisionShape2D" parent="."]
visible = false
shape = SubResource( 1 )

[node name="Area2D" type="Area2D" parent="."]
position = Vector2( 0, -54 )

[node name="CollisionShape2D" type="CollisionShape2D" parent="Area2D"]
shape = SubResource( 2 )

[node name="VisibilityNotifier2D" type="VisibilityNotifier2D" parent="."]
[connection signal="body_entered" from="Area2D" to="." method="_on_Area2D_body_entered"]
[connection signal="screen_exited" from="VisibilityNotifier2D" to="." method="_on_VisibilityNotifier2D_screen_exited"]
